…
# model
result <-
  anovaBF(
    RT ~ shape * color + ID,
    data = puzzles,
    whichRandom = "ID",
    whichModels = "top",
    progress = FALSE
  )

# extract details
bf_extractor(result)
#> # A tibble: 21 x 21
#>    term                estimate conf.level conf.low conf.high    pd
#>    <chr>                  <dbl>      <dbl>    <dbl>     <dbl> <dbl>
#>  1 mu                    45.0         0.95  43.7      46.4    1    
#>  2 shape-round            0.429       0.95   0.0643    0.801  0.992
#>  3 shape-square          -0.429       0.95  -0.801    -0.0643 0.992
#>  4 color-color           -0.426       0.95  -0.799    -0.0461 0.990
#>  5 color-monochromatic    0.426       0.95   0.0461    0.799  0.990
#>  6 ID-1                   2.47        0.95   0.783     4.37   0.995
#>  7 ID-2                   0.439       0.95  -1.21      2.20   0.698
#>  8 ID-3                   0.907       0.95  -0.849     2.66   0.848
#>  9 ID-4                   0.466       0.95  -1.47      2.20   0.704
#> 10 ID-5                   3.17        0.95   1.38      5.00   0.999
#>    rope.percentage prior.distribution prior.location prior.scale effect
#>              <dbl> <chr>                       <dbl>       <dbl> <chr> 
#>  1           0     cauchy                          0         0.5 fixed 
#>  2           0.141 cauchy                          0         0.5 fixed 
#>  3           0.141 cauchy                          0         0.5 fixed 
#>  4           0.162 cauchy                          0         0.5 fixed 
#>  5           0.162 cauchy                          0         0.5 fixed 
#>  6           0     cauchy                          0         1   random
#>  7           0.231 cauchy                          0         1   random
#>  8           0.156 cauchy                          0         1   random
#>  9           0.218 cauchy                          0         1   random
#> 10           0     cauchy                          0         1   random
#>    component    bf10 method                          log_e_bf10    r2 std.dev
#>    <chr>       <dbl> <chr>                                <dbl> <dbl>   <dbl>
#>  1 extra       2.65  Bayes factors for linear models      0.974 0.733  0.0518
#>  2 conditional 0.233 Bayes factors for linear models     -1.45  0.733  0.0518
#>  3 conditional 0.239 Bayes factors for linear models     -1.43  0.733  0.0518
#>  4 conditional 2.65  Bayes factors for linear models      0.974 0.733  0.0518
#>  5 conditional 0.233 Bayes factors for linear models     -1.45  0.733  0.0518
#>  6 conditional 0.239 Bayes factors for linear models     -1.43  0.733  0.0518
#>  7 conditional 2.65  Bayes factors for linear models      0.974 0.733  0.0518
#>  8 conditional 0.233 Bayes factors for linear models     -1.45  0.733  0.0518
#>  9 conditional 0.239 Bayes factors for linear models     -1.43  0.733  0.0518
#> 10 conditional 2.65  Bayes factors for linear models      0.974 0.733  0.0518
#>    r2.conf.level r2.conf.low r2.conf.high r2.component
#>            <dbl>       <dbl>        <dbl> <chr>       
#>  1          0.95       0.605        0.810 conditional 
#>  2          0.95       0.605        0.810 conditional 
#>  3          0.95       0.605        0.810 conditional 
#>  4          0.95       0.605        0.810 conditional 
#>  5          0.95       0.605        0.810 conditional 
#>  6          0.95       0.605        0.810 conditional 
#>  7          0.95       0.605        0.810 conditional 
#>  8          0.95       0.605        0.810 conditional 
#>  9          0.95       0.605        0.810 conditional 
#> 10          0.95       0.605        0.810 conditional 
#> # ... with 11 more rows
```
…
