Tidy Wrapper for BayesFactor Package • tidyBF
…
# extract details
bf_extractor(result)
#> Multiple `BFBayesFactor` models detected - posteriors are extracted from the first numerator model.
#> See help("get_parameters", package = "insight").
#> Multiple `BFBayesFactor` models detected - posteriors are extracted from the first numerator model.
#> See help("get_parameters", package = "insight").
#> Multiple `BFBayesFactor` models detected - posteriors are extracted from the first numerator model.
#> See help("get_parameters", package = "insight").
#> Multiple `BFBayesFactor` models detected - posteriors are extracted from the first numerator model.
#> See help("get_parameters", package = "insight").
#> # A tibble: 21 x 17
#>    term                estimate conf.low conf.high    pd rope.percentage prior.distribution prior.location prior.scale effects
#>    <chr>                  <dbl>    <dbl>     <dbl> <dbl>           <dbl> <chr>                       <dbl>       <dbl> <chr>  
#>  1 mu                    45.0    43.9      46.1    1              0      <NA>                           NA          NA fixed  
#>  2 shape-round            0.438   0.131     0.741  0.986          0      <NA>                           NA          NA fixed  
#>  3 shape-square          -0.438  -0.741    -0.131  0.986          0      <NA>                           NA          NA fixed  
#>  4 color-color           -0.426  -0.711    -0.0995 0.983          0      <NA>                           NA          NA fixed  
#>  5 color-monochromatic    0.426   0.0995    0.711  0.983          0      <NA>                           NA          NA fixed  
#>  6 ID-1                   2.49    1.04      3.98   0.996          0      <NA>                           NA          NA random 
#>  7 ID-2                   0.449  -1.02      1.78   0.698          0.0885 <NA>                           NA          NA random 
#>  8 ID-3                   0.907  -0.501     2.32   0.84           0.0649 <NA>                           NA          NA random 
#>  9 ID-4                   0.420  -0.959     1.98   0.691          0.0862 <NA>                           NA          NA random 
#> 10 ID-5                   3.14    1.83      4.66   1.00           0      <NA>                           NA          NA random 
#>    component    bf10  bf01 log_e_bf10 log_e_bf01 log_10_bf10 log_10_bf01
#>    <chr>       <dbl> <dbl>      <dbl>      <dbl>       <dbl>       <dbl>
#>  1 extra       2.65  0.378      0.974     -0.974       0.423      -0.423
#>  2 conditional 0.233 4.28      -1.45       1.45       -0.632       0.632
#>  3 conditional 0.239 4.18      -1.43       1.43       -0.621       0.621
#>  4 conditional 2.65  0.378      0.974     -0.974       0.423      -0.423
#>  5 conditional 0.233 4.28      -1.45       1.45       -0.632       0.632
#>  6 conditional 0.239 4.18      -1.43       1.43       -0.621       0.621
#>  7 conditional 2.65  0.378      0.974     -0.974       0.423      -0.423
#>  8 conditional 0.233 4.28      -1.45       1.45       -0.632       0.632
#>  9 conditional 0.239 4.18      -1.43       1.43       -0.621       0.621
#> 10 conditional 2.65  0.378      0.974     -0.974       0.423      -0.423
#> # ... with 11 more rows
…
