Bayesian one-way analysis of variance — bf_oneway_anova • tidyBF
…
bf_oneway_anova(
  data = bugs_long,
  x = condition,
  y = desire,
  paired = TRUE
)
#> Multiple `BFBayesFactor` models detected - posteriors are extracted from the first numerator model.
#> See help("get_parameters", package = "insight").
#> Multiple `BFBayesFactor` models detected - posteriors are extracted from the first numerator model.
#> See help("get_parameters", package = "insight").
#> Multiple `BFBayesFactor` models detected - posteriors are extracted from the first numerator model.
#> See help("get_parameters", package = "insight").
#> Multiple `BFBayesFactor` models detected - posteriors are extracted from the first numerator model.
#> See help("get_parameters", package = "insight").
#> # A tibble: 96 x 17
#>    term           estimate conf.low conf.high    pd rope.percentage
#>    <chr>             <dbl>    <dbl>     <dbl> <dbl>           <dbl>
#>  1 mu                6.88    6.51      7.25   1              0     
#>  2 condition-HDHF    0.905   0.612     1.19   1              0     
#>  3 condition-HDLF   -0.192  -0.466     0.0926 0.87           0.271 
#>  4 condition-LDHF    0.458   0.168     0.733  0.996          0     
#>  5 condition-LDLF   -1.17   -1.46     -0.897  1              0     
#>  6 rowid-1           0.677  -0.680     2.09   0.782          0.0741
#>  7 rowid-3           1.50    0.0916    2.92   0.948          0     
#>  8 rowid-4           0.490  -0.987     1.86   0.716          0.0890
#>  9 rowid-5          -0.822  -2.20      0.645  0.814          0.0747
#> 10 rowid-6          -2.85   -4.36     -1.47   1.00           0     
#>    prior.distribution prior.location prior.scale effects component          bf10
#>    <chr>                       <dbl>       <dbl> <chr>   <chr>             <dbl>
#>  1 NA                             NA          NA fixed   extra       1386484963.
#>  2 NA                             NA          NA fixed   conditional 1386484963.
#>  3 NA                             NA          NA fixed   conditional 1386484963.
#>  4 NA                             NA          NA fixed   conditional 1386484963.
#>  5 NA                             NA          NA fixed   conditional 1386484963.
#>  6 NA                             NA          NA random  conditional 1386484963.
#>  7 NA                             NA          NA random  conditional 1386484963.
#>  8 NA                             NA          NA random  conditional 1386484963.
#>  9 NA                             NA          NA random  conditional 1386484963.
#> 10 NA                             NA          NA random  conditional 1386484963.
#>        bf01 log_e_bf10 log_e_bf01 log_10_bf10 log_10_bf01
#>       <dbl>      <dbl>      <dbl>       <dbl>       <dbl>
#>  1 7.21e-10       21.1      -21.1        9.14       -9.14
#>  2 7.21e-10       21.1      -21.1        9.14       -9.14
#>  3 7.21e-10       21.1      -21.1        9.14       -9.14
#>  4 7.21e-10       21.1      -21.1        9.14       -9.14
#>  5 7.21e-10       21.1      -21.1        9.14       -9.14
#>  6 7.21e-10       21.1      -21.1        9.14       -9.14
#>  7 7.21e-10       21.1      -21.1        9.14       -9.14
#>  8 7.21e-10       21.1      -21.1        9.14       -9.14
#>  9 7.21e-10       21.1      -21.1        9.14       -9.14
#> 10 7.21e-10       21.1      -21.1        9.14       -9.14
#> # ... with 86 more rows
…
